Playing with fonts
…
## # A tibble: 6 x 9
##   path           index name      family    style  weight width  italic monospace
##   <chr>          <int> <chr>     <chr>     <chr>  <ord>  <ord>  <lgl>  <lgl>    
## 1 /System/Libra     1 ShreeDev Shree De Bold   bold   normal FALSE  FALSE    
## 2 /Users/ellaka     0 Raleway- Raleway   Bold  bold   normal TRUE   FALSE    
## 3 /Users/ellaka     3 Mulish-I Mulish    SemiB semib normal TRUE   FALSE    
## 4 /System/Libra     0 Impact    Impact    Regul heavy  semic FALSE  FALSE    
## 5 /Users/ellaka     6 RalewayI Raleway   Bold  bold   normal TRUE   FALSE    
## 6 /Users/ellaka     8 LEMONMIL LEMON MI Heavy ultra normal TRUE   FALSE

all_fonts %>%
  filter(str_detect(path, ".otf"))

## # A tibble: 61 x 9
##    path             index name      family  style  weight width italic monospace
##    <chr>            <int> <chr>     <chr>   <chr>  <ord>  <ord> <lgl>  <lgl>    
##  1 /Users/ellakaye     0 Museo-500 Museo   500    normal norm FALSE  FALSE    
##  2 /Users/ellakaye     0 LEMONMIL LEMON  Ultra thin   norm FALSE  FALSE    
##  3 /System/Library     0 STIXSize STIXSi Regul normal norm FALSE  FALSE    
##  4 /System/Library     0 NotoSans Noto S Regul normal norm FALSE  FALSE    
##  5 /System/Library     0 STIXSize STIXSi Bold   bold   norm FALSE  FALSE    
##  6 /Users/ellakaye     0 MuseoSla Museo  500    normal norm FALSE  FALSE    
##  7 /Users/ellakaye     0 Newslab   Newslab Regul normal norm FALSE  FALSE    
##  8 /System/Library     0 STIXInte STIXIn Regul normal norm FALSE  FALSE    
##  9 /Users/ellakaye     0 LEMONMIL LEMON  Regul normal norm FALSE  FALSE    
## 10 /Users/ellakaye     0 LEMONMIL LEMON  Regul normal norm TRUE   FALSE    
## #  with 51 more rows
…
